{
  "rootObjects": [
    {
      "id": "__00001__",
      "name": null
    }
  ],
  "objects": {
    "__00001__": {
      "playlists": "__00002__",
      "artists": "__00003__"
    },
    "__00002__": {
      "0": "__00004__",
      "1": "__00005__"
    },
    "__00003__": {
      "0": "__00006__",
      "1": "__00007__"
    },
    "__00004__": {
      "id": "c9uv4nt",
      "name": "La playlist de Ari",
      "tracks": "__00008__",
      "genres": "__00009__",
      "maxDuration": 40,
      "currentDuration": 6
    },
    "__00005__": {
      "id": "w7sjluq",
      "name": "La otra playlist",
      "tracks": "__00010__",
      "genres": "__00011__",
      "maxDuration": 5,
      "currentDuration": 4
    },
    "__00006__": {
      "id": "et1v1u9",
      "albums": "__00012__",
      "name": "Virus",
      "country": "Argentina"
    },
    "__00007__": {
      "id": "kxq2bhd",
      "albums": "__00013__",
      "name": "Soda Stereo",
      "country": "Argentina"
    },
    "__00008__": {
      "0": "__00014__"
    },
    "__00009__": {
      "0": "Rock"
    },
    "__00010__": {
      "0": "__00015__"
    },
    "__00011__": {
      "0": "Pop"
    },
    "__00012__": {
      "0": "__00016__",
      "1": "__00017__",
      "2": "__00018__"
    },
    "__00013__": {
      "0": "__00019__",
      "1": "__00020__"
    },
    "__00014__": {
      "id": "aju3ko4",
      "albumId": "5iyquon",
      "name": "Primavera Zero",
      "duration": 6,
      "genres": "Rock"
    },
    "__00015__": {
      "id": "baliz9n",
      "albumId": "c4ikmfi",
      "name": "Nada Personal",
      "duration": 4,
      "genres": "Pop"
    },
    "__00016__": {
      "id": "4utrdg2",
      "artistId": "et1v1u9",
      "tracks": "__00021__",
      "name": "Grandes Exitos",
      "year": 2000
    },
    "__00017__": {
      "id": "qhaolif",
      "artistId": "et1v1u9",
      "tracks": "__00022__",
      "name": "Pronta Entrega",
      "year": 1980
    },
    "__00018__": {
      "id": "7zmpfd4",
      "artistId": "et1v1u9",
      "tracks": "__00023__",
      "name": "Luna de miel",
      "year": 1985
    },
    "__00019__": {
      "id": "c4ikmfi",
      "artistId": "kxq2bhd",
      "tracks": "__00024__",
      "name": "Nada Personal",
      "year": 1995
    },
    "__00020__": {
      "id": "5iyquon",
      "artistId": "kxq2bhd",
      "tracks": "__00025__",
      "name": "Dynamo",
      "year": 2005
    },
    "__00021__": {},
    "__00022__": {},
    "__00023__": {},
    "__00024__": {
      "0": "__00015__",
      "1": "__00026__"
    },
    "__00025__": {
      "0": "__00014__"
    },
    "__00026__": {
      "id": "qttnutl",
      "albumId": "c4ikmfi",
      "name": "Cancion Animal",
      "duration": 3,
      "genres": "Pop"
    }
  },
  "types": {
    "__00001__": "UNQfy",
    "__00002__": "Array",
    "__00003__": "Array",
    "__00004__": "Playlist",
    "__00005__": "Playlist",
    "__00006__": "Artist",
    "__00007__": "Artist",
    "__00008__": "Array",
    "__00009__": "Array",
    "__00010__": "Array",
    "__00011__": "Array",
    "__00012__": "Array",
    "__00013__": "Array",
    "__00014__": "Track",
    "__00015__": "Track",
    "__00016__": "Album",
    "__00017__": "Album",
    "__00018__": "Album",
    "__00019__": "Album",
    "__00020__": "Album",
    "__00021__": "Array",
    "__00022__": "Array",
    "__00023__": "Array",
    "__00024__": "Array",
    "__00025__": "Array",
    "__00026__": "Track"
  }
}